<?xml version="1.0" encoding="utf-8"?>
<!-- Generator: Adobe Illustrator 22.1.0, SVG Export Plug-In . SVG Version: 6.00 Build 0)  -->
<svg version="1.1" id="Верхняя_часть_головы"
	 xmlns="http://www.w3.org/2000/svg" xmlns:xlink="http://www.w3.org/1999/xlink" x="0px" y="0px" viewBox="0 0 111.4 121"
	 style="enable-background:new 0 0 111.4 121;" xml:space="preserve">
<style type="text/css">
	.st0{fill:#FFFFFF;fill-opacity:0.3;stroke:#952642;stroke-linecap:round;stroke-linejoin:round;}
	.st1{fill:#FFFFFF;stroke:#952642;}
	.st2{fill:#952642;}
</style>
<path id="Forma_1" class="st0" d="M7.5,66.1c1-3,4.3-5.1,7.2-9.5c1.2-1.9,1.7-4.2,1.4-6.5c-1.9,0-5.5-0.5-4.8-3.6
	c0.9,1.6,2.8,2.4,4.6,1.9c0-0.2-0.1-0.5-0.2-0.7c-1.1-2.9-0.3-12.8,0.8-18.6c4.5-14.1,9-12.6,14.2-17.4c8.6-4,16.6-10.6,41.6-4.1
	c6.8,3.4,5.9,4.6,11.2,10.2c4.8,7.2,7.5,24.2,5.1,35.8c-8.7,16.8-9.1,16.8-15.2,23.5c-5.4,6.1,2.1,20.7,2.1,20.7l-28.9,22.7
	c0,0-5.2-14.5-6.3-18.9c-1.8-10.1-15.8-1.5-22.7-3.5s-2.2-11.6-2.2-11.6c-1.3-0.7-2.1-2-2.2-3.5c-0.2-2.4,4.6-4.3,4.6-4.3
	s-5,0.9-5.7-1.7c-0.5-2,2-4.5,2-4.5l0-1.6C13.8,71,6,70.3,7.5,66.1z"/>
<path id="Фигура_2" class="st1" d="M91.1,90c1,14,13.8,8.7,8.2,2c0,0,9.1-5.2,11,4c3.4,16.6-7.2,25.2-29,24
	c-21.9-1.2-23.8-26-23-35c0.7-5.8,1.7-11.5,3.2-17.1c0,0,11.6-27.6-8.3-17.1C50.8,52.1,48.8,62,48.8,62h-2.2c0,0-3.4-10-6.6-18.6
	l-29.6-1c3.7,0-9.9-39.5,52-41.9c48.7,6,43.3,61.7,29.3,86.5C91.3,87.9,91,89,91.1,90z"/>
<path id="Фигура_2_копия_3" class="st2" d="M48.7,1.8c0.5,0.7,22.7-7.2,41,10.1c3.8,3.8,6.5,11.2,6.5,11.2
	s6.6,10.6-4.3,11.2c-9.5,0.5-21.6-9-21.6-9S53,16.7,48.5,9.7C48,8.9,47.3,1.5,48.7,1.8z"/>
</svg>
