<?xml version="1.0" encoding="utf-8"?>
<!-- Generator: Adobe Illustrator 22.1.0, SVG Export Plug-In . SVG Version: 6.00 Build 0)  -->
<svg version="1.1" id="Слой_1" xmlns="http://www.w3.org/2000/svg" xmlns:xlink="http://www.w3.org/1999/xlink" x="0px" y="0px"
	 viewBox="0 0 27 25" style="enable-background:new 0 0 27 25;" xml:space="preserve">
<style type="text/css">
	.st0{fill:#3D3D3D;}
</style>
<g>
	<path class="st0" d="M21.5,16L21.5,16c0.8,0,1.5-0.7,1.5-1.5S22.3,13,21.5,13c-0.8,0-1.5,0.7-1.5,1.5C20,15.3,20.7,16,21.5,16z"/>
	<path class="st0" d="M26.3,10c-0.1,0-0.2,0-0.3,0V7c-0.1-1.4-1.2-2.6-2.7-2.7H22V2.5C22,1.1,21,0,19.6,0H2.5C1.2,0,0.2,1,0,2.2h0
		v20.3C0,23.9,1.1,25,2.5,25h20.8c1.5-0.2,2.6-1.5,2.7-3v-3c0.5,0.1,0.9-0.2,1-0.7c0-0.1,0-0.2,0-0.3v-7
		C27.1,10.5,26.7,10.1,26.3,10z M2,2L2,2l18,0c0,0.2,0,0.3,0,1v1H3C2.7,4,2.3,4,2,4V3C2,2.3,1.9,2,2,2z M24,22L24,22
		c0.1,0.5-0.2,0.9-0.7,1c-0.1,0-0.2,0-0.3,0H3c-0.5,0.1-0.9-0.2-1-0.7c0-0.1,0-0.2,0-0.3V6.1c0.1,0,0.2,0,0-0.1h21
		c0.5-0.1,0.9,0.2,1,0.7c0,0.1,0,0.2,0,0.3v3h-6c-0.5-0.1-0.9,0.2-1,0.7c0,0.1,0,0.2,0,0.3v7c-0.1,0.5,0.2,0.9,0.7,1
		c0.1,0,0.2,0,0.3,0h6V22z M25,17h-6v-5h6V17z"/>
</g>
</svg>
