<svg xmlns="http://www.w3.org/2000/svg" xmlns:xlink="http://www.w3.org/1999/xlink" version="1.1" x="0px" y="0px" width="293.5px" height="293.5px" viewBox="0 0 293.5 293.5" enable-background="new 0 0 293.5 293.5" xml:space="preserve">
<g id="background_1_" enable-background="new    ">
</g>
<g id="WhatsApp_Logo_Icon_1_">
	<g id="Icon_xA0_影像_1_">
		
			<image overflow="visible" width="587" height="587" id="Icon_xA0_影像" xlink:href="data:image/png;base64,iVBORw0KGgoAAAANSUhEUgAAAkwAAAJOCAYAAABFrFjIAAAACXBIWXMAABYlAAAWJQFJUiTwAAAA GXRFWHRTb2Z0d2FyZQBBZG9iZSBJbWFnZVJlYWR5ccllPAAAIEdJREFUeNrs3QmUZFWdJ+CXWVl7 scgiu1Y7LFXsqIAKKK0FiLi1jApSsjh267gcB9RBxenTM624nWmn8fTY47TK3nTruCI7jbaAgCJQ YLG4sJXsUEJBLVlLzP9mvKyMinoZEblExvZ95/zyZWVGRkbeCA6/c9+N+7IMAAAAACaizxB0v9PW /7eBOMzMMys/zogM5P9Ox+k1Pu/Pb5/MrrjrmQWvoXS7aUYdNrMmssEwtEwa+8GKf6+NrMs/X50f 1+e3KeXP12B+m+HP1+bHys9X5T+/+tvT/rZkmBUm2qf8pPIyJzI3skV+HP58Tl50ZucZ/nxmVWGa lRehgfz7A3XKU3/+s1n+9azi86LC1O+ZgsLC5H+orbO+oDCtryhMpYpStWGUwlT0+epRsqrg3ykv VOT5KFmrPDUKE+MrRKmYbBfZJrJ1nq0qytG8PNWFaV5emKrL0nDxAaD5pbhWgVqZ5/n8uCL/fEWe 5yLPRpZH/pQfl0epMjOpMPV8OUqFZpfIrpGdIy/OU12Ytq4oR3M8bwBdY11FYVqRF6XhPBN5KvJ4 5MnII5E/Rh6NErXO0ClM3VyQUvF5aWR+ZLe8KO2al6aU7fNyBADJ+rwsVRamhyPL8uMDkYec2lOY Or0gpRmk/5DnzyrKUjq+JLKtUQJgHCXqsYrClPJg5P7I79LnZqAUpk4oSTvGYUFk97wo7Z4nFSWz RwBMtrRg/fG8OKXC9Ps8v43cG+VpuSFSmNqhIKUxTLNFC/OiNJxUlnYxxgBMsTS79GBenu6pyN1R nh43PArTVBeltEh738h++TEVpr0ys0gAtJfHKkrTXZE70zHK0zOGRmFqVklK71I7MHJQXpRS9ols aXQA6ABP5qUp5Y7I7Xl5WmNoFKYJOXX9Z9MYpdNrr8zL0ivSsS/r287oANCpSllpWV6Ybo3clo7n TvvcMiOjMI21KKUdqw+IHJonFaY9M7tYA9Bd0s7lSyO/itycZ2mUp/WGRmEavSit+2w67faqyGvy 4yExSmaTAOh+paF9nm7KS9MNqUSdO/C5QQOjMFUWpbQO6dWR10aOiBycbXrdNADoFSvy4vTveW6J 4rRaYertopQ2lzw8sigvS2mN0nT/rQDA0DXwUnH6WeTayM1RnNYqTL1VlFIpOjQvSovyz12kFgA2 l2aXro9ck+e2KE49dVHgnitMUZTS35z2TXpj5JjIYZlTbwDQiHSq7qeRqyOXR2n6ncLUnWVpp7wo HZeVZ5W28toHgDFL+zldGbk0lacoTl2/CWZPFKYoSjPj8IbIWyLHZuWL3wIAE5N2D78sL04/j+LU tRf97frCFGUpXa7kHZG3Z+V3vnlnIABMnlSS0hYE30+J0vSQwtRZRWleHN4U+Yv86PIlANA8T0V+ FPle5JooTl11uZWuLExRlhbE4YTIOyN7ew0DwJQoZeVLrXw3ckmUpgcVpvYsSmmt0hvzspTWK831 2gWAKfenrDzTdEnkum5Y29Q1hSnK0s5xOClyYuQgr1UAaKk023RjXprSbNNTClPry9Ih6ZCVZ5Ze 5DUKAG3j8cjFkW9HabpTYWpNUUqn4N4aOS1ydGSa1yUAtJ10Ad8fR74VuaoTT9F1bGE6Zd1nt83K s0rv67OwGwDaXinLbonDuZGLzhv43HMKU9PL0lm7x+GvsqGZpb7tvAQBoGNq0yPx4ZuR/3vewOcf VpiaV5ZeHYf/nJW3DHANOADoPC9ELor8Q5SmJQrT5Bal/qx8sdyPZeX1SnbsBoDOtT7yw8g5UZp+ pjBNTlmaHofjI6dHDvEaA4CucV3k7yKXRXHaoDCNvyzNjsPJWXlmaaHXFQB0nbQ7+Fcj/xqlaa3C NPaylHbq/svIGZHdvJ4AoGvdF/mfkfOiNLXddejatjCdsvasLbLy4u7T41Hu6HUEAF2ulD2Yl6Z/ Om/651cpTPXL0lZx+HBWXrNk2wAA6B1p24GvRL4RpWmlwjR6WUozSx/Ly9I2XjcA0HMei3w58vUo TasVps3LUlqz9NHIJ5UlAOj50vS5rHx6ruVrmtqmMEVZSu+G+1DkzMj2XicA0POW5aXpW1GaWvru ubYoTFGW0j5LH4ycFdnB6wMAyKWF4H8duTBKU8v2aepvg7KUHsOJWXlmSVkCACq9NPKZyHGtfBD9 bTAQx+UDsYvXBABQYK/IX5+y9qzDW/UAWnpK7uS1QxfSPScexCu9FgCAWkpZdk0cPn7+9Km/YG/L CtPJaz+zexy+Fg/hjV4CAEBDlSnLvhM54/zpZy/r+sIUZWnbOHwp8r6sQy4ADAC0hfWRcyJ/E6Xp uan6pVO+hinK0qysvNfSYmUJABijaZH3p0SnGOjawhTeGflIZKbnHAAYh3RVkDMib56qXzilMzzR BA+Nw7cie3uuAYAJujVy2vnTz76zawpTlKVd4/D1qWyDAEDXuyTy0ShNTzXzl0zJKbkoS+n0W7qg 7rGeVwBgEr0j8sFmr2eaqjVMb8vKC7SmeV4BgEk0IyuvjT6qmb+k6afkovEtjMPFkQM9pwBAk9wQ WXz+9LMfaMadN3WG6eTBz8zLStknlSUAoKlK2Wsi/yW6R1Pehd/s/QveFXl3eWNOAICmSWfNTo1c H/luM+68KaLhLYjD9yILPYcAwBRJWw0cf/6Msx+czDttyim5KEtpN+8zlCUAYIq9IvKR6CKTehat KYWplGXHRU7wnAEAUy06yGmR10/mfU76Kbn3Dn56xzj8KO76YE8ZANCi2nRdfHjnBTO+8PRk3Nuk TldFWUoF7LTIKzMrvQGA1nlt5D2Rr03GnU32Kbn9Ih/MpvgadQAAVdJm2R997+Cnd2+rwhQPaHoc To+8xHMEALSBPSIfjo4y4SuNTOYM0xGR4z03AEAbWZwNLRVqg8IUzW1OHD4e2cLzAgC0ke0ip+dn wlpbmMLRkTd4TgCANnRcVl4EPm4TXpwdjW3LOFyalU/JAQC0o8sjx18w4wurxvPDkzHDdGzk1Z4H AKCNpY0sjxzvD09ohum9g5+eF4crIod5HgCANpc6y9svmPGFNWP9wYnOMC2KHGr8AYAOcGTk8PH8 4LgL0+LBT88oZdlHskneLRwAoElmpe6yeBz7Mo2/7JSGZpYOK9nTGwDoFKWhs2MHRH7d9MK0eM2n oiaVPpBlfbNcMg4A6CDzosO8P44fGssPjWt+KArTXnG4MbKNcQcAOsxjkUMvnPnFhxr9gfGuYTpB WQIAOtSOkXeM5QfGPMO0eM2n0uVPbo4sNN4AQIdKa5gOu3DmF1c3cuPxzDClHb33Ms4AQAfbP3Jw ozceT2E6NZu8a9ABALRCeuPbKY3eeEyn5Bav+dQucViSWb8EAHS+tPh7/wtnfvHJejcc60zRG5Ul AKBLpMXfRzZyw4YL0+I1n0q3PdHYAgBdpKFuM5YZppdlrhsHAHSX1+VLjianMJXKp+PmGVcAoIts Ex3n9fVu1NClUU4auhRK9jZXQQEAutBfRC6odYMGZ5hKO0cOMZ4AQPcpHXHSmjO3rXWLRi++++eR LTNX2gUAus92kcMiPxrtBo3NMJWyNxtLAKBr1ek6dTeuPGn1mXPjcF9kZ6MJAHSp30f2vmjWlwaL vtnIDFO61spOxhEA6GLzsxrXym2kMB2TjfESKgAAHWZaZNFECtMiYwgA9ICjRvtGzZmjk1afma4b d3829A45AICu9lRk/kWzvvRC9TfqzTC9XFkCAHpE2l5gn6Jv1CxMpQav4AsA0A2i+7yu6Ov1Nq48 3FaVAEAPOSLyleovjrqG6T3l/ZcejrzI2AEAPeLRyPyLq/ZjqnFKrrSnsgQA9JbSjpH51V+tdUru Va4dBwD0mHT27eCsfJWTjWot+j7EmAEAPejQ6i/UKkwHGi8AoAcdVP2FwkXf71n1X2fH4fH47hbG DADoKaXsyfi4y8Wzv7x2+EujrWF6SWQLS5gAgB6UNrDcIbJs+AujnZLbw1gBAD0qnYHbs/ILoxWm +cYKAOhhL6tbmEpVNwIA6CWlqsmj0dYwzbd8CQDoYZsUptFOye1mnACAHrZrA4WptItxAgB6V2mn yn9tdkruxFWfnBmHbV0WBQDoYTtU/qNohinKUjbDOAEAPWyLE1d9cm6twrSTMQIAelzqSNvXKkwv NkYAACOdqKgwbW98AACyHRUmAIDadhi1MJVKChMAQHSijYWpaKfv7Up2FAAAqLmGaRvjAwAw0okK ClNpa+MDADDSiYpOyW1tl28AgGxjYeqv9U0AAIVJYQIAGFthOmHlJ9Ipui2MDwDA6DNM6SJzA8YH ACCbc8LKT8wsKkxOxwEAlPVFttysMJWy7EXGBgBg025UffptaxsKAABstFX60F/0RQAARitMpdI8 4wIAsGk3qj4lNy9z5V0AgGFz0of+zQoTAAA1C5NNKwEAqrqRwgQAMLp5RYVptnEBANio8JTcHOMC AFCjMJXK15IDAKDcjYaWK1VvKzDHpgIAABtZwwQAUMesgsJUmmFcAAA2dqOhwjSweYtyUg4AYKQb bX5KzgwTAMCwUrkbDRR9EQCAITPTh+oZplnGBQBgoxlFhWm6cQEA2GjzNUwlM0wAAJUGNn6oMM17 5AAARrpR+uCUHADA6Cz6BgCoY3pRYeo3LgAAm6paw2QFEwBAhcIZJgAARmy6humdz5+uPAEAbKrq XXIlC74BAIpUrmGabgkTAECNwqQrAQAUs24JAEBhAgBQmAAAmqpi0bdVTAAARcwwAQAoTAAAChMA gMIEANBKNq4EAKjDDBMAQB0j2wqYYgIAKGSGCQBAYQIAmBg7fQMA1GGGCQBAYQIAUJgAAJrKxpUA AHWYYQIAUJgAABQmAACFCQCglSquJWfZNwBAETNMAAAKEwCAwgQA0FQ2rgQAqMMMEwCAwgQAoDAB AChMAACtNLJxpWXfAACFzDABANRRcWkUgwEAULMw6UsAAMWckgMAUJgAABQmAACFCQCglezDBABQ hxkmAACFCQBAYQIAaCobVwIANFqYNCYAgGJOyQEAKEwAAAoTAEBT2bgSAKAOM0wAAAoTAMDE2IcJ AKAOM0wAAAoTAIDCBADQVC6NAgDQcGHSmAAACjklBwCgMAEATIx9mAAA6jDDBACgMAEAKEwAAAoT AIDCBADQxip2+vY+OQCAImaYAAAUJgCAibFxJQBAHWaYAAAUJgAAhQkAQGECAGilkX2YLPsGAChk hgkAQGECAJiYkX2YnJEDAChkhgkAQGECAFCYAAAUJgAAhQkAoI3ZuBIAoA4zTAAAdYzsw2QsAAAK mWECAKhjZA2TKSYAgEJmmAAAFCYAAIUJAKCp7MMEAFCHGSYAgDrswwQAUIcZJgAAhQkAQGECAFCY AABayaVRAAAaLkwaEwBAIafkAADqsA8TAEAdZpgAABQmAACFCQBAYQIAUJgAANqYfZgAABotTCV9 CQCgkFNyAAAKEwCAwgQAoDABAChMAAAKEwBA57IPEwBAo4VJXQIAKOaUHABAHSOn5EwxAQAUMsME AKAwAQAoTAAAChMAQCvZhwkAoNHCpC4BABRzSg4AQGECAFCYAACayk7fAAB1mGECAFCYAAAmxj5M AACNFiZ1CQCgmFNyAACjG1SYAABqW60wAQDUVlKYAAAaoDABANRhp28AgIYLk8YEAFC7MKlLAADF rGECAFCYAAAUJgAAhQkAQGECAFCYAAA6l20FAAAaLUwqEwBAvcKkLwEAFLKGCQBAYQIAUJgAABQm AACFCQCgjdmHCQCg0cKkMgEAFHNKDgBAYQIAmBg7fQMA1GGGCQBAYQIAUJgAAJrKPkwAAI0WJpUJ AKCYU3IAAAoTAIDCBACgMAEAtJKdvgEA6jDDBABQh32YAAAaLUwqEwBAMafkAAAUJgAAhQkAQGEC AFCYAAAUJgCAzjWyD5NdBQAAahcm+zABABRzSg4AQGECAFCYAAAUJgAAhQkAoI2NbCtgLAAACplh AgCowz5MAAANFyZ9CQCgkFNyAAAKEwCAwgQAoDABALSSfZgAAOowwwQAUId9mAAA6jDDBACgMAEA KEwAAE3l0igAAHWYYQIAqMM+TAAAdZhhAgCowz5MAAB1mGECAFCYAAAUJgAAhQkAQGECAGhjI/sw eZMcAEAhM0wAAAoTAMDE2LgSAKAOM0wAAAoTAIDCBACgMAEAtNLIPkzGAgCgkBkmAACFCQBgYkb2 YXJtFACAQmaYAAAUJgAAhQkAQGECAFCYAADamI0rAQDqMMMEAKAwAQBMzMjGlU7KAQDUKUz6EgBA IafkAAAUJgAAhQkAoKnswwQAUIcZJgAAhQkAYGLswwQAUIcZJgAAhQkAQGECAGgql0YBAGi0MOlL AADFnJIDAFCYAAAUJgCAprJxJQBAHWaYAAAUJgAAhQkAQGECAGglG1cCADRamDQmAIBiTskBAChM AAATY+NKAIA6zDABAChMAAAKEwBAU9mHCQCgDjNMAAAKEwCAwgQA0FQVl0axigkAoIgZJgAAhQkA QGECAFCYAABaycaVAAB1mGECAFCYAAAUJgAAhQkAoJVGdvq27BsAoJAZJgCAOiquJWcwAACKmGEC AKjDxpUAAHWYYQIAUJgAABQmAACFCQCglWxcCQBQhxkmAACFCQBAYQIAaCobVwIANFqYNCYAgGJO yQEAjG6DwgQAUNua6sK03pgAAGxiMH2o3LhyjTEBANjcxhmm2xb8aK3hAACoUZgAANjMYFFhWmdc AAA2GlqyNFD5lVL5iwPGBgBgyNCSpeoZpkHjAgCw0eqiwrTauAAAbGSGCQCgjs3XMGUlM0wAANWF yQwTAMDoqnf6Tuz2DQBQYVX6UD3D9LxxAQDYqPBdciuNCwDARivSh+qNKxUmAIARL6QP/UUtCgCA ISuLCpM1TAAAVd2oujC9YFwAAGoXJmuYAADqFCan5AAARhSuYbLoGwBgxNBypapryZWckgMAGFF4 Su454wIAsGk3qi5MfzIuAACbFqbqnb4VJgCAEc+mD2aYAACKrY2sUpgAAEa3Ysnel24oKkzpXXKD xgcAYGQiaZPClLco75QDAMiy5YWFqbpNAQD0sKcVJgCA2jbOMA1s/r3ScuMDAFD7lNwzxgcAYKQT FRWmJ4wPAED25PAnm52SK5Wyx40PAMBIYSqaYVKYAAAUJgCAup6oVZgeMz4AALULkxkmAKDXpQvv 1ty48qnIeuMEAPSwp+/c5ydrRi1M8c10AV7XkwMAetkfK//RP8qNrGMCAHrZI5X/GCi+Tenh+LDQ WAEAPerhyn+MNsP0gHECAHrYJl2ocIappDABAL3t/sp/jDbD9AfjBAD0sD80UpjuNU4AQI9al1Wd bRutMP0+ssp4AQA96NHI8sov9I12y33vetPdcVhgzACAHnPFXftedmzlF/pr3Pg24wUA9KBfV3+h VmG6xXgBAD3olrEUppuMFwDQY9JFd28dS2FamrmmHADQWx7Mqi6LkvTV+ol97zr2hji8xtgBAD3i orv2vXxx9Rf76/zQz40bANBDCrvPQK2fKGXZz+JwprEDAHrAhtEKU70Zpl9FXjB+AEAPWJaVN+8e c2F6KnKX8QMAesCNv9n38jVjLkzxQ6U4XGP8AIAecO1o3+hv4IevNH4AQJcbjFw3kcJ0e+Rx4wgA dLF7Ig+MuzD9Zt/LV8TheuMIAHSxq6PzrB/tmwMN3UUp+3F8PN5YAgBd6rJa3+xv8E7+LbLCWAIA XShdCuWXtW7Q2AxTVkr7EqQL0R1pTAGALnPtb/a7oubEUEMzTHEnaXuBHxhPAKALfa/eDQYavadS +dze5yNzjSsA0CUezRq4dm7/GO4wbRV+i3EFALrIlUv3u+LpSStMcWfpgnSXGFcAoEukJUf/3MgN +8d4x5dHlhtfAKALPBD5RTMKU3q33LXGFwDoAt9fWufdceMqTEvL75Y7N7LBGAMAHWx15KJGb9w/ jl+QVpLfZ5wBgA6W3sh2Z9MK09L9rnguDv9inAGADnZudJq1TStMufRuOYu/AYBO9EBWfiNbw8Zb mO4d6y8CAGgTlyzd74rHxvIDfeP9TXvfecwRcbgqMsu4AwAd4pnI4Uv3u/LusfzQwLh/XSm7OT5e H1lk7AGADvGTyD1j/aG+ifzGhUuOeWscvhuZbvwBgDaX9lw6+u79r7xprD/YP8FfnDax/IXxBwA6 wJWRX43nBydUmKKhvRCHr0XWeg4AgDaWOss50V3WTXlhqmhr13seAIA2dlnkpvH+cN9kPIKFS455 cxy+k3nHHADQftLekW8az9qlYf2T9EDSWqarPR8AQBv6f5FfTuQO+ibrkSxccszr4vDDyFaeFwCg TTwSOfbu/a9cMpE76Z/EB3RjVj4tBwDQLr6ZjeEiu6Ppm8xHtHDJMfvE4dLIfM8PANBiaVbpuLv3 v3LZRO9oMmeY0jYDv4nD/45s8BwBAC00GPnqZJSlSS9MufOyCbxtDwBgEqQ3o31vsu6srxmPcOGS o98ShwsyC8ABgKn3aORdd+9/1aTtE9nfpAeaNrO80PMFAEyxtCzo/2TlN6NNmr5mPdoFS47ePStP he3nuQMApsjPI+++Z/+rHu2IwpSXpsVx+HpknucPAGiyJyOnRFm6fLLvuL/JDzzNMDk1BwA02/rI NyLXNOPO+5r96BfcMXRq7uLIwZ5LAKBJ0rviTr3ngKse6cjClJemt8fhnyLbej4BgEn2UOTkKEs/ a9Yv6J+iP+SyrLyWaa3nFACYRKsi/ysrL/Zumr6p+msW3HH0DnH4h8jxnlsAYJKkM1ifuOeAq57t isKUl6aXx+Hbkf09vwDABKWNKd8XZem3zf5FfVP9l0Vpelcczons4HkGAMbp/sgHoixdPRW/rL8F f+D3s/K5xpWeawBgHJ6JfCVy7VT9wikvTNEE08Lvf8zKp+bWe84BgDFYk5XfSHZedIoNU/VL+1r1 1y644+iXxuHvI2/z3AMADSilohQ5M8rSE1P5i/ta+VcvuOOoV2Tl03OHew0AAHVcmg29I+7qe6f6 F/e1+i/f646jFsXh7zIX6QUARpfeEXfGvQdc/ctW/PL+NhiAtGDrb7PyancAgGp3Rv57q8pSWxSm +OPT+ch0kd6zIw97TQAAFe7LyhMr17byQfS1y2jsdcdR0+Pwl5GzIjt7fQBAz/tD5G8iF997wNUt fWd9XzuNSpSmWXH4QOQzkRd7nQBAz3ow8j8i50dZWtfqB9PXbqMTpWlOHD4U+XhkR68XAOg5D0W+ EPlmlKW17fCA+tpxlKI0zY3DX0U+kTk9BwC9JJ2G+1LkvChLa9rlQfW162hFaZodh/fnpeklXj8A 0PXSAu8vRi5sl5mlti9MQ6Xp9qE1Tadk5dNze3gdAUDXSlsHfDlyyb0Htn7NUkcVprw0zYjDuyJn RA7yegKArnND5KuRH0RZasvrzPZ1wihGaUr7Rb05cnrkSK8rAOgKaS/GK7LyFT+ujbJUatcH2tdJ oxrFKZWlj0XeEpnmdQYAHWsw8t3I30dRuqXdH2xfp41ulKYD4vDhyHsic73eAKDjLI+cF/nHKEv3 dsID7uvEUY7SlN41l95B958y2w4AQCdJ1479RuRbUZae6JQH3depo73X7Yu2jMNJkVMjh3j9AUDb S4u7vxn5l3sPvGZlJz3wvk4e9T1vXzQQh6Pz0vTWyEyvRQBoO6si3498O/Jv9x14zYZO+wP6uuFZ iOK0T16a0ozTTl6XANA2Ho5cEDkvitJ9nfpH9HXLsxGlads4vDtyYuSwbvrbAKADpVmkn0b+OfKd KEvPdvIf01WlIkpT2mrgzyMnRN4ReZHXKwBMuSez8pYBqSzd0Imn4Lq6MFUUp/QuujTb9B8jB2dm mwBgKqRi9IvIdyL/GkXp0W75w7q2SERpSgvAX5+VZ5reFtne6xgAmuaRyA+z8uLu66IsreumP67r Z16iOO0Wh7fnxenwyIDXNABMmrRj90/zovSDKEqPdeMf2ROnqvK1TaksHZeVr0m30OsbACZsSeQn kR9Hbu6GtUo9XZgqitNWcTgm8qY8TtMBwNg9mhelyyLXRFFa0e1/cE8uho7iND8rzzYtysrvqtvK ax8A6nomcl0qSZFLoygt65U/vGffPRalKf3tB+SlKeWIyBz/LQDAZp6P/HtelFLuirJU6qUB6Pm3 2+frm9K16N4QeW3kNZG5/tsAgCydarsxKy/qvjby6yhK63txIOxPNFKcZsThlZHXZeXZpldlNr4E oDctz8oXyv15Vp5ZujWK0tpeHhCFafPiND0OB2XlmaZUmg6NzDcyAPSA+yM3RW7OC9Pt3bafksI0 2cXptqE1TntVlKaXR/aPzDI6AHSRVZE7I7dWlKX77juot9YoKUyTU552iMMr8tJ0UJ75xg+ADpXK UJpNuj3y68htkV9FSXrC0ChME7bHbW9Ip+sW5oVpv4rsZHQA6ABpF+4789yRF6alvz3oWqfdFKam lact47BPXpj2jSzIs6txBaBNpJmkP0buidydylFelu6KkvSs4VGYpro8bZOVZ56GS1Na+7R75GWR mUYIgCm0JvJA5Ld5UUq5NxWmKElPGx6FqV3K07w47JkXppQ9In+WZ5fINKMEwCRK1297JC9Jv8vz +7ww3RclaYUhUpjavTz1x2G3rDzTlArTS7PyYvGUXfMCZQYKgLFYmxekhyIP5kXpgYrC9HCUpA2G SWHq5AI1PS9K8/MitWtFcdo58uI8ti4AIElv+X8qT1qLtKziOFyYUkEaNFQKUzcXqDT+21cUph3y wrRtVt5lPGXrSDrNt2V+3CI/OrUH0B2FKF2n7bn8mE6fPVNRkp7O82RWnlVKRekJM0gKE+UiNTcv S9vkhWluRWGqLk4pcyoyO8+siuPMPDOMLkDTrI4M5sdVFceUlZEX8s9fyItRdVEazvLhwhTFaKVh VZiYeKmal5epuXk5Gi5Ns6pK03BZmllRoGZUfQ2AxovRmooM5sfKr6+qKk3DhWllnqFyZP8jhYn2 LVqzK4rScGmabWQAGlKqKEbDRWlNFJ81hgYAAAAAGN3/F2AARC0jccnxSFwAAAAASUVORK5CYII=" transform="matrix(0.5 0 0 0.5 0 0)">
		</image>
	</g>
	<g id="WA_Logo">
		<g>
			<path fill-rule="evenodd" clip-rule="evenodd" fill="#FFFFFF" d="M223.777,70.979c-19.623-19.646-45.719-30.47-73.522-30.482     c-57.288,0-103.914,46.623-103.937,103.929c-0.007,18.318,4.778,36.198,13.874,51.961l-14.745,53.858l55.098-14.453     c15.181,8.28,32.273,12.645,49.668,12.651h0.043c57.282,0,103.912-46.629,103.936-103.936     C254.202,116.737,243.4,90.624,223.777,70.979z M150.256,230.89h-0.035c-15.501-0.006-30.705-4.171-43.968-12.042l-3.155-1.871     l-32.696,8.576l8.727-31.878l-2.054-3.27c-8.647-13.753-13.215-29.65-13.208-45.974c0.019-47.63,38.772-86.38,86.424-86.38     c23.073,0.008,44.764,9.005,61.074,25.335c16.31,16.329,25.286,38.033,25.277,61.116     C236.623,192.136,197.87,230.89,150.256,230.89z M197.641,166.189c-2.597-1.299-15.364-7.582-17.745-8.449     c-2.38-0.865-4.112-1.299-5.843,1.301c-1.731,2.6-6.709,8.449-8.224,10.183c-1.515,1.732-3.03,1.95-5.626,0.649     c-2.598-1.299-10.965-4.042-20.885-12.89c-7.72-6.886-12.932-15.39-14.447-17.991c-1.515-2.6-0.162-4.005,1.139-5.3     c1.168-1.164,2.597-3.034,3.896-4.55s1.731-2.6,2.597-4.333s0.433-3.25-0.217-4.549c-0.649-1.301-5.843-14.084-8.007-19.284     c-2.108-5.063-4.249-4.378-5.843-4.458c-1.513-0.075-3.246-0.092-4.978-0.092c-1.731,0-4.544,0.65-6.925,3.25     c-2.38,2.6-9.089,8.883-9.089,21.666c0,12.783,9.305,25.131,10.604,26.865c1.298,1.733,18.313,27.964,44.364,39.214     c6.195,2.676,11.033,4.273,14.805,5.471c6.222,1.977,11.883,1.697,16.357,1.029c4.99-0.746,15.365-6.283,17.529-12.349     c2.164-6.067,2.164-11.267,1.515-12.35C201.969,168.14,200.238,167.49,197.641,166.189z"/>
		</g>
	</g>
</g>
</svg>
